date, sujet, auteur
19/07/02,    [DH] [perso] Conseil "carrière", Anne Garcia-Fernandez
19/07/02,    [DH] [Personnel] Projet "carrière", Tony Hry
19/07/02,    Re: [DH] [perso] Conseil "carrière", Anne Garcia-Fernandez
19/07/02,    Re: [DH] [Personnel] Projet "carrière", Gautier Poupeau
19/07/03,     Re: [DH] [Personnel] Projet "carrière", Stéphane Pouyllau
19/07/03,     Re: [DH] [Personnel] Projet "carrière", Aurélien Berra
19/07/03,     Re: [DH] [Personnel] Projet "carrière", williams
19/07/03,     Re: [DH] [Personnel] Projet "carrière", Stéphane Pouyllau
19/07/03,     Re: [DH] [Personnel] Projet "carrière", Aurélien Berra
19/07/03,     Re: [DH] [Personnel] Projet "carrière", Julie Giovacchini
19/07/03,     Re: [DH] [Personnel] Projet "carrière", Guillaume Coatalen
19/07/03,     Re: [DH] Projet "carrière", Ian Johnson
19/07/03,     Re: [DH] [Personnel] Projet "carrière", LiCoRN
19/07/03,     Re: [DH] Projet "carrière", Claire Lemercier
19/07/03,     Re: [DH] Projet "carrière", Guillaume Coatalen
19/07/03,     Re: [DH] Projet "carrière", Stéphane POUYLLAU
19/07/03,     Re: [DH] [Personnel] Projet "carrière", Thierry Daunois
19/07/03,     Re: [DH] Projet "carrière", Guillaume Coatalen
19/07/03,     Re: [DH] [Personnel] Projet "carrière", Marjorie Burghart
19/07/03,     Re: [DH] Projet "carrière", Stéphane POUYLLAU
19/07/03,     Re: [DH] [Personnel] Projet "carrière", Guillaume Coatalen
19/07/03,     Re: [DH] [Personnel] Projet "carrière", Eric CARROLL
19/07/03,     Re: [DH] [Personnel] Projet "carrière", Stéphane POUYLLAU
19/07/03,     Re: [DH] [Personnel] Projet "carrière", Marcello Vitali-Rosati
19/07/03,     Re: [DH] [Personnel] Projet "carrière", Thierry Poibeau
19/07/03,     Re: [DH] [Personnel] Projet "carrière", Dornbusch Joachim
19/07/03,     Re: [DH] [Personnel] Projet "carrière", Pierre-Carl Langlais
19/07/03,     Re: [DH] [Personnel] Projet "carrière", KEMBELLEC Gerald
19/07/03,     Re: [DH] [Personnel] Projet "carrière", Stéphane Pouyllau
19/07/03,     Re: [DH] [Personnel] Projet "carrière", Stéphane Pouyllau
19/07/03,     Re: [DH] [Personnel] Projet "carrière", Xavier-Laurent SALVADOR
19/07/03,     Re: [DH] [Personnel] Projet "carrière", Stéphane Pouyllau
19/07/03,     RE: [DH] Projet "carrière", William DEMET
19/07/04,    Re: [DH] [Personnel] Projet "carrière", Vincent Alamercery
19/07/04,    Re: [DH] [Personnel] Projet "carrière", Robert Alessi
19/07/04,    Re: [DH] [Personnel] Projet "carrière", Eric CARROLL
19/07/04,    Re: [DH] [Personnel] Projet "carrière", Yvon Rastetter
19/07/04,    RE: [DH] [Personnel] Projet "carrière", SKARSOULI Pinelopi
19/07/05,    Re: [DH] [Personnel] Projet "carrière", loret-s
19/07/05,    Re: [DH] [Personnel] Projet "carrière", BROUDOUX Evelyne
19/07/05,    Re: [DH] [Personnel] Projet "carrière", Claire Lemercier
19/07/05,    Re: [DH] [Personnel] Projet "carrière", Eric CARROLL
19/07/05,    Re: [DH] [Personnel] Projet "carrière", Claire Lemercier
19/07/05,    Re: [DH] [Personnel] Projet "carrière", Claire Lemercier
19/07/05,    Re: [DH] [Personnel] Projet "carrière", Eric CARROLL
19/07/07,    Re: [DH] [Personnel] Projet "carrière", Marie-Luce Demonet
19/07/07,    Re: [DH] [Personnel] Projet "carrière", Aurélien Berra
19/07/07,    RE: [DH] [Personnel] Projet "carrière", Daniel Stoekl
19/07/07,    RE: [DH] [Personnel] Projet "carrière", MOCQUET Bertrand
19/07/07,    Re: [DH] [Personnel] Projet "carrière", williams
19/07/07,    Re: [DH] [Personnel] Projet "carrière", Andreas Gálffy
19/07/07,    Re: [DH] [Personnel] Projet "carrière", Tony Hry
19/07/07,    Re: [DH] [Personnel] Projet "carrière", Gautier Poupeau
19/07/07,    Re: [DH] [Personnel] Projet "carrière", Guillaume Coatalen
19/07/08,    Re: [DH] [Personnel] Projet "carrière", Joel Marchand
19/07/08,    Re: [DH] [Personnel] Projet "carrière", Claire Lemercier
19/07/08,    Re: [DH] [Personnel] Projet "carrière", Claire Lemercier
19/07/08,    Re: [DH] [Personnel] Projet "carrière", Robert Alessi
19/07/08,    Re: [DH] [Personnel] Projet "carrière", Stéphane Pouyllau
19/07/09,    Re: [DH] [Personnel] Projet "carrière", loret-s
19/07/10,    Re: [DH] [Personnel] Projet "carrière", Dornbusch Joachim
19/07/10,    Re: [DH] [Personnel] Projet "carrière", Eric CARROLL
19/07/10,    Re: [DH] [Personnel] Projet "carrière", Claire Lemercier
19/07/10,    Re: [DH] [Personnel] Projet "carrière", Paul GIRARD
19/07/10,    Re: [DH] [Personnel] Projet "carrière", Nicolas Legrand
19/07/10,    Re: [DH] [Personnel] Projet "carrière", Cecile Duteille Mad
19/07/10,    Re: [DH] [Personnel] Projet "carrière", Dornbusch Joachim
19/07/10,    Re: [DH] [Personnel] Projet "carrière", Reymond David
19/07/11,    Re: [DH] [Personnel] Projet "carrière", David Fiala
